…
```r
detach(package:plyr)
d2 <- data.frame(d2)
#d2$date <- as.Date(d2$date)
dt2 <- d2 %>% 
      group_by(date) %>% 
      summarise(avg_steps = mean(steps),
                median_steps = median(steps))
dt2
```

```
## # A tibble: 61 x 3
##    date       avg_steps median_steps
##    <chr>          <dbl>        <dbl>
##  1 2012-10-01     0                0
##  2 2012-10-02     0.438            0
##  3 2012-10-03    39.4              0
##  4 2012-10-04    42.1              0
##  5 2012-10-05    46.2              0
##  6 2012-10-06    53.5              0
##  7 2012-10-07    38.2              0
##  8 2012-10-08     0                0
##  9 2012-10-09    44.5              0
## 10 2012-10-10    34.4              0
## # ... with 51 more rows
```
…
