…
```
## `summarise()` has grouped output by 'weekends'. You can override using the
## `.groups` argument.
```

```r
df2
```

```
## # A tibble: 576 x 4
## # Groups:   weekends [2]
##    weekends interval mean_steps median_steps
##       <dbl>    <int>      <dbl>        <dbl>
##  1        0        0     2.02              0
##  2        0        5     0.4               0
##  3        0       10     0.156             0
##  4        0       15     0.178             0
##  5        0       20     0.0889            0
##  6        0       25     1.31              0
##  7        0       30     0.622             0
##  8        0       35     1.02              0
##  9        0       40     0                 0
## 10        0       45     1.6               0
## # ... with 566 more rows
```
…
